%YAML 1.1
%TAG !u! tag:unity3d.com,2011:
--- !u!114 &11400000
MonoBehaviour:
  m_ObjectHideFlags: 0
  m_CorrespondingSourceObject: {fileID: 0}
  m_PrefabInstance: {fileID: 0}
  m_PrefabAsset: {fileID: 0}
  m_GameObject: {fileID: 0}
  m_Enabled: 1
  m_EditorHideFlags: 0
  m_Script: {fileID: 11500000, guid: 8aa072315c1ce754eb76936babcaf3e6, type: 3}
  m_Name: Knife
  m_EditorClassIdentifier: 
  name: Knife
  icon: {fileID: 21300000, guid: e7d6af40a8c1cab4986966912f00787a, type: 3}
